<?xml version="1.0" encoding="utf-8"?>
<!-- Generator: Adobe Illustrator 24.1.1, SVG Export Plug-In . SVG Version: 6.00 Build 0)  -->
<svg version="1.1" id="Layer_1" xmlns="http://www.w3.org/2000/svg" xmlns:xlink="http://www.w3.org/1999/xlink" x="0px" y="0px"
	 viewBox="0 0 321 91" style="enable-background:new 0 0 321 91;" xml:space="preserve">
<style type="text/css">
	.st0{fill:#4C51BF;}
	.st1{fill:#FFFFFF;}
</style>
<g>
	<path class="st0" d="M148.6,61h-5c-0.6,0-1-0.1-1.4-0.4c-0.4-0.3-0.6-0.6-0.8-1l-2.6-7.1h-14.4l-2.6,7.1c-0.1,0.4-0.4,0.7-0.7,1
		c-0.4,0.3-0.8,0.5-1.4,0.5h-5l13.7-34.7h6.6L148.6,61z M137.2,47.9L133,36.4c-0.2-0.5-0.4-1.1-0.6-1.8c-0.2-0.7-0.4-1.5-0.7-2.3
		c-0.2,0.8-0.4,1.6-0.6,2.3s-0.4,1.3-0.6,1.9l-4.2,11.5H137.2z"/>
	<path class="st0" d="M168.3,41.6c-0.2,0.2-0.3,0.4-0.5,0.5s-0.4,0.2-0.7,0.2c-0.3,0-0.6-0.1-0.9-0.3s-0.6-0.4-1-0.6
		c-0.4-0.2-0.9-0.4-1.4-0.6c-0.6-0.2-1.2-0.3-2.1-0.3c-1,0-2,0.2-2.7,0.6c-0.8,0.4-1.4,0.9-2,1.6c-0.5,0.7-0.9,1.6-1.2,2.6
		s-0.4,2.1-0.4,3.4c0,1.3,0.1,2.5,0.4,3.5c0.3,1,0.7,1.9,1.2,2.6c0.5,0.7,1.2,1.2,1.9,1.6c0.8,0.4,1.6,0.5,2.5,0.5s1.7-0.1,2.3-0.3
		c0.6-0.2,1.1-0.5,1.5-0.8c0.4-0.3,0.7-0.5,1-0.8c0.3-0.2,0.6-0.3,1-0.3c0.5,0,0.8,0.2,1.1,0.6l1.7,2.2c-0.7,0.8-1.4,1.4-2.1,1.9
		c-0.8,0.5-1.6,0.9-2.4,1.2c-0.8,0.3-1.7,0.5-2.5,0.7c-0.9,0.1-1.7,0.2-2.6,0.2c-1.5,0-3-0.3-4.3-0.9c-1.3-0.6-2.5-1.4-3.5-2.5
		c-1-1.1-1.8-2.4-2.4-4s-0.9-3.4-0.9-5.4c0-1.8,0.3-3.5,0.8-5c0.5-1.5,1.3-2.9,2.3-4c1-1.1,2.3-2,3.7-2.7c1.5-0.6,3.2-1,5.1-1
		c1.8,0,3.5,0.3,4.8,0.9c1.4,0.6,2.6,1.4,3.7,2.5L168.3,41.6z"/>
	<path class="st0" d="M204.4,61h-5c-0.6,0-1-0.1-1.4-0.4c-0.4-0.3-0.6-0.6-0.8-1l-2.6-7.1h-14.4l-2.6,7.1c-0.1,0.4-0.4,0.7-0.7,1
		s-0.8,0.5-1.4,0.5h-5l13.7-34.7h6.6L204.4,61z M193,47.9l-4.2-11.5c-0.2-0.5-0.4-1.1-0.6-1.8c-0.2-0.7-0.4-1.5-0.7-2.3
		c-0.2,0.8-0.4,1.6-0.6,2.3c-0.2,0.7-0.4,1.3-0.6,1.9L182,47.9H193z"/>
	<path class="st0" d="M228,25.3V61h-3.6c-0.8,0-1.3-0.4-1.5-1.1l-0.5-2.4c-1,1.1-2.1,2.1-3.4,2.8c-1.3,0.7-2.8,1.1-4.5,1.1
		c-1.3,0-2.6-0.3-3.7-0.8c-1.1-0.6-2.1-1.4-2.9-2.4c-0.8-1.1-1.4-2.4-1.9-3.9c-0.4-1.6-0.7-3.4-0.7-5.4c0-1.8,0.2-3.5,0.7-5.1
		c0.5-1.6,1.2-2.9,2.1-4.1c0.9-1.2,2-2.1,3.3-2.7c1.3-0.6,2.8-1,4.4-1c1.4,0,2.6,0.2,3.5,0.6c1,0.4,1.8,1,2.6,1.8v-13H228z
		 M222,42.7c-0.7-0.8-1.4-1.4-2.2-1.7c-0.8-0.3-1.6-0.5-2.6-0.5c-0.9,0-1.7,0.2-2.4,0.5c-0.7,0.3-1.3,0.8-1.8,1.5
		c-0.5,0.7-0.9,1.5-1.2,2.6c-0.3,1-0.4,2.3-0.4,3.7c0,1.4,0.1,2.7,0.3,3.7s0.6,1.8,1,2.4s1,1.1,1.6,1.4s1.3,0.4,2.1,0.4
		c1.2,0,2.3-0.3,3.1-0.8c0.9-0.5,1.7-1.2,2.4-2.2V42.7z"/>
	<path class="st0" d="M233.2,39.8c2.8-2.6,6.2-3.9,10.2-3.9c1.4,0,2.7,0.2,3.9,0.7c1.1,0.5,2.1,1.1,2.9,2c0.8,0.8,1.4,1.8,1.8,3
		c0.4,1.2,0.6,2.4,0.6,3.8V61h-2.7c-0.6,0-1-0.1-1.3-0.3c-0.3-0.2-0.5-0.5-0.7-1l-0.5-1.8c-0.6,0.6-1.2,1.1-1.8,1.5
		c-0.6,0.4-1.2,0.8-1.8,1.1c-0.6,0.3-1.3,0.5-2.1,0.7c-0.7,0.2-1.5,0.2-2.4,0.2c-1,0-2-0.1-2.9-0.4c-0.9-0.3-1.6-0.7-2.3-1.3
		c-0.6-0.6-1.1-1.3-1.5-2.1c-0.4-0.8-0.5-1.8-0.5-2.9c0-0.6,0.1-1.2,0.3-1.9c0.2-0.6,0.5-1.2,1-1.8c0.5-0.6,1.1-1.1,1.8-1.6
		s1.7-0.9,2.8-1.3c1.1-0.4,2.4-0.7,3.8-0.9c1.5-0.2,3.1-0.4,5-0.4v-1.4c0-1.6-0.4-2.9-1.1-3.7s-1.7-1.2-3-1.2c-1,0-1.8,0.1-2.4,0.3
		c-0.6,0.2-1.2,0.5-1.7,0.8c-0.5,0.3-0.9,0.5-1.3,0.8s-0.8,0.3-1.3,0.3c-0.4,0-0.8-0.1-1.1-0.3c-0.3-0.2-0.5-0.5-0.7-0.8L233.2,39.8
		z M246.8,50.5c-1.7,0.1-3.2,0.2-4.3,0.4c-1.2,0.2-2.1,0.5-2.8,0.8c-0.7,0.3-1.2,0.7-1.5,1.2c-0.3,0.4-0.5,0.9-0.5,1.5
		c0,1,0.3,1.8,0.9,2.2c0.6,0.4,1.4,0.7,2.4,0.7c1.2,0,2.3-0.2,3.2-0.7c0.9-0.4,1.8-1.1,2.6-2V50.5z"/>
	<path class="st0" d="M258.2,61V36.4h3.6c0.8,0,1.3,0.4,1.5,1.1l0.4,1.8c0.4-0.5,0.9-0.9,1.4-1.3c0.5-0.4,1-0.7,1.5-1
		s1.1-0.5,1.7-0.7c0.6-0.2,1.3-0.3,2-0.3c1.6,0,2.8,0.4,3.8,1.3s1.7,2,2.2,3.3c0.4-0.8,0.9-1.5,1.4-2.1s1.2-1.1,1.9-1.4
		s1.4-0.6,2.2-0.8c0.8-0.2,1.6-0.3,2.3-0.3c1.4,0,2.6,0.2,3.6,0.6c1.1,0.4,1.9,1,2.7,1.8c0.7,0.8,1.3,1.8,1.6,2.9
		c0.4,1.2,0.6,2.5,0.6,4V61h-5.9V45.3c0-1.6-0.3-2.7-1-3.5c-0.7-0.8-1.7-1.2-3-1.2c-0.6,0-1.2,0.1-1.7,0.3c-0.5,0.2-1,0.5-1.4,0.9
		c-0.4,0.4-0.7,0.9-0.9,1.5c-0.2,0.6-0.3,1.3-0.3,2V61h-6V45.3c0-1.6-0.3-2.8-1-3.6c-0.7-0.8-1.6-1.1-2.9-1.1
		c-0.9,0-1.7,0.2-2.4,0.6c-0.7,0.4-1.4,1-2.1,1.7v18H258.2z"/>
	<path class="st0" d="M320.1,36.4l-13.4,31.4c-0.2,0.4-0.4,0.7-0.7,0.9c-0.3,0.2-0.7,0.3-1.3,0.3h-4.4l4.6-9.9l-10-22.8h5.2
		c0.5,0,0.8,0.1,1.1,0.3c0.3,0.2,0.5,0.5,0.6,0.8l5.2,12.8c0.2,0.4,0.3,0.9,0.4,1.3s0.2,0.9,0.3,1.3c0.1-0.4,0.3-0.9,0.4-1.3
		c0.1-0.4,0.3-0.9,0.5-1.3l4.9-12.7c0.1-0.3,0.3-0.6,0.6-0.8s0.6-0.3,1-0.3H320.1z"/>
	<circle class="st0" cx="45.5" cy="45.5" r="45.5"/>
	<path class="st1" d="M71.7,46c1.7-0.9,3.3-1.8,5-2.7c0.2-0.1,0.3-0.2,0.6-0.4c-0.3-0.2-0.5-0.3-0.8-0.4c-10.3-5.5-20.7-11-31-16.6
		c-0.3-0.2-0.6-0.2-0.8,0C34.2,31.4,23.8,37,13.4,42.6c-0.1,0.1-0.3,0.2-0.5,0.3c0.2,0.1,0.4,0.2,0.5,0.3c3.9,2.3,7.9,4.6,11.8,6.9
		c0.2,0.1,0.4,0.3,0.4,0.6c0.1,1.5,0.1,3,0,4.4c-0.1,0.7,0.3,1.3,0.9,1.7c0.3,0.2,0.6,0.3,0.9,0.4c1.3,0.4,2.6,0.9,3.9,1.1
		c3.9,0.8,7.9,1.2,12,1.2c3.4,0,6.8-0.2,10.3-0.4c2.6-0.1,5.1-0.6,7.6-1.3c1-0.3,1.9-0.7,2.8-1.2c0.4-0.2,0.6-0.6,0.7-1.1
		c0.1-1.2,0.1-2.3-0.1-3.5c-0.2-1.1,0.4-2.2,1.5-2.6c1.3-0.7,2.6-1.6,4-2.4c0,1.7,0,3.2,0,4.8c0,0.3-0.1,0.6-0.4,0.8
		c-0.7,0.6-0.8,1.7-0.2,2.4c0,0,0.1,0.1,0.1,0.1c0.6,0.7,1.7,0.7,2.4,0.1c0,0,0.1-0.1,0.1-0.1c0.6-0.7,0.6-1.9-0.2-2.5
		c0,0-0.1,0-0.1-0.1c-0.2-0.2-0.3-0.4-0.3-0.6c0-1.8,0-3.5,0-5.3C71.3,46.4,71.5,46.1,71.7,46z M61.6,56.1c-1.2,0.4-2.5,0.7-3.8,1
		c-4.2,0.6-8.5,0.9-12.8,0.9c-3.2-0.2-6.4-0.2-9.6-0.5c-1.9-0.2-3.9-0.6-5.8-0.9c-0.4-0.1-0.8-0.2-1.2-0.5C28.3,56,28,55.8,28,55.6
		c0-0.2,0.3-0.5,0.5-0.5c1.1-0.4,2.3-0.7,3.4-0.9c5.5-0.8,11.1-1.1,16.7-0.8c3.6,0,7.3,0.4,10.8,1c0.7,0.2,1.5,0.4,2.2,0.7
		c0.2,0.1,0.5,0.4,0.5,0.6S61.8,56.1,61.6,56.1L61.6,56.1z M63.9,46.5c-1.3-1.1-2.9-2-4.5-2.7c-2.1-0.8-4.3-1.3-6.5-1.6
		c-3.2-0.5-6.4-0.6-9.6-0.5c-4,0-7.9,0.6-11.7,1.8c-1.9,0.6-3.6,1.5-5.1,2.8c-0.1,0.1-0.2,0.1-0.3,0.2c-0.2-0.5,0-1.1,0.4-1.5
		c1.3-1.2,2.8-2.2,4.5-2.8c2.6-1,5.2-1.7,8-1.9c2.8-0.3,5.6-0.4,8.4-0.3c4.3,0,8.5,0.9,12.4,2.6c1.2,0.6,2.3,1.4,3.3,2.2
		C64,45.4,64,45.4,63.9,46.5L63.9,46.5z"/>
	<path class="st1" d="M69.2,55.9c-0.2,3.2-0.5,6.3-0.7,9.4c1.1-1.1,1.9-2.4,3.8-1.9v-7.6C71.3,56.3,70.2,56.3,69.2,55.9z"/>
</g>
</svg>
